[
    {
        "id":"goodID1",
        "name":"EMBROIDERED MIDI DRESS",
        "price":59.99,
        "pictureUrl":"https://static.zara.net/photos///2022/V/0/1/p/5107/254/809/2/w/906/5107254809_2_9_1.jpg?ts=1643372883192",
        "artice":100101,
        "color":"grey",
        "isFavorite":false,
        "isInCart": false
    },
    {
        "id":"goodID2",
        "name":"SATIN EFFECT SHIRT DRESS",
        "price":89.90,
        "pictureUrl":"https://static.zara.net/photos///2022/V/0/1/p/2315/423/800/4/w/788/2315423800_1_1_1.jpg?ts=1643905185764",
        "artice":100102,
        "color":"black",
        "isFavorite":false,
        "isInCart": false
    },
    {
        "id":"goodID3",
        "name":"PRINTED MIDI DRESS",
        "price":47.99,
        "pictureUrl":"https://static.zara.net/photos///2022/V/0/1/p/2067/008/330/2/w/788/2067008330_1_1_1.jpg?ts=1641912298715",
        "artice":100103,
        "color":"multi",
        "isFavorite":false,
        "isInCart": false
    },
    {
        "id":"goodID4",
        "name":"PRINTED SHORT DRESS",
        "price":49.99,
        "pictureUrl":"https://static.zara.net/photos///2022/V/0/1/p/5216/043/615/2/w/906/5216043615_2_1_1.jpg?ts=1644585967722",
        "artice":100104,
        "color":"orange",
        "isFavorite":false,
        "isInCart": false
    },
    {
        "id":"goodID5",
        "name":"VOLUMINOUS MINI DRESS",
        "price":35.99,
        "pictureUrl":"https://static.zara.net/photos///2022/V/0/1/p/2143/061/800/2/w/1126/2143061800_2_1_1.jpg?ts=1646211442625",
        "artice":100105,
        "color":"black",
        "isFavorite":false,
        "isInCart": false
    },
    {
        "id":"goodID6",
        "name":"SHORT EMBROIDERED DRESS",
        "price":59.99,
        "pictureUrl":"https://static.zara.net/photos///2022/V/0/1/p/6895/045/330/2/w/788/6895045330_1_1_1.jpg?ts=1647605400347",
        "artice":100106,
        "color":"black",
        "isFavorite":false,
        "isInCart": false
    },
    {
        "id":"goodID7",
        "name":"RUFFLED PRINT DRESS",
        "price":59.99,
        "pictureUrl":"https://static.zara.net/photos///2022/V/0/1/p/2512/642/093/2/w/1126/2512642093_1_1_1.jpg?ts=1642681902322",
        "artice":100107,
        "color":"black",
        "isFavorite":false,
        "isInCart": false
    },
    {
        "id":"goodID8",
        "name":"BUSTIER MIDI DRESS",
        "price":79.99,
        "pictureUrl":"https://static.zara.net/photos///2022/V/0/1/p/2656/707/630/2/w/1126/2656707630_1_1_1.jpg?ts=1643712582331",
        "artice":100108,
        "color":"pink",
        "isFavorite":false,
        "isInCart": false
    },
    {
        "id":"goodID9",
        "name":"DOUBLE BREASTED BLAZER DRESS",
        "price":99.99,
        "pictureUrl":"https://static.zara.net/photos///2022/V/0/1/p/2657/575/513/2/w/1126/2657575513_1_1_1.jpg?ts=1644585997013",
        "artice":100109,
        "color":"green",
        "isFavorite":false,
        "isInCart": false
    },
    {
        "id":"goodID10",
        "name":"CUT OUT PRINTED DRESS",
        "price":29.99,
        "pictureUrl":"https://static.zara.net/photos///2022/V/0/1/p/7385/367/436/2/w/788/7385367436_1_1_1.jpg?ts=1648722249287",
        "artice":100110,
        "color":"blue",
        "isFavorite":false,
        "isInCart": false
    }
]